week13/simulation/modelsim/dump.vcd
$date
	Thu Nov 26 20:16:17 2020
$end
$version
	ModelSim Version 10.5b
$end
$timescale
	1ps
$end

$scope module testbench $end
$var reg 6 ! opcode [5:0] $end
$var reg 6 " funct [5:0] $end
$var wire 1 # MemtoReg $end
$var wire 1 $ MemWrite $end
$var wire 1 % Branch $end
$var wire 1 & ALUSrc $end
$var wire 1 ' RegDst $end
$var wire 1 ( RegWrite $end
$var wire 1 ) ALUControl [2] $end
$var wire 1 * ALUControl [1] $end
$var wire 1 + ALUControl [0] $end

$scope module cu $end
$var wire 1 , opcode [5] $end
$var wire 1 - opcode [4] $end
$var wire 1 . opcode [3] $end
$var wire 1 / opcode [2] $end
$var wire 1 0 opcode [1] $end
$var wire 1 1 opcode [0] $end
$var wire 1 2 funct [5] $end
$var wire 1 3 funct [4] $end
$var wire 1 4 funct [3] $end
$var wire 1 5 funct [2] $end
$var wire 1 6 funct [1] $end
$var wire 1 7 funct [0] $end
$var wire 1 # MemtoReg $end
$var wire 1 $ MemWrite $end
$var wire 1 % Branch $end
$var wire 1 & ALUSrc $end
$var wire 1 ' RegDst $end
$var wire 1 ( RegWrite $end
$var wire 1 ) ALUControl [2] $end
$var wire 1 * ALUControl [1] $end
$var wire 1 + ALUControl [0] $end
$var wire 1 8 ALUOp [1] $end
$var wire 1 9 ALUOp [0] $end

$scope module md $end
$var wire 1 , opcode [5] $end
$var wire 1 - opcode [4] $end
$var wire 1 . opcode [3] $end
$var wire 1 / opcode [2] $end
$var wire 1 0 opcode [1] $end
$var wire 1 1 opcode [0] $end
$var wire 1 # MemToReg $end
$var wire 1 $ MemWrite $end
$var wire 1 % Branch $end
$var wire 1 & ALUSrc $end
$var wire 1 ' RegDst $end
$var wire 1 ( RegWrite $end
$var wire 1 8 ALUOp [1] $end
$var wire 1 9 ALUOp [0] $end
$var reg 1 : _MemToReg $end
$var reg 1 ; _MemWrite $end
$var reg 1 < _Branch $end
$var reg 1 = _ALUSrc $end
$var reg 1 > _RegDst $end
$var reg 1 ? _RegWrite $end
$var reg 2 @ _ALUOp [1:0] $end
$upscope $end

$scope module ad $end
$var wire 1 8 ALUOp [1] $end
$var wire 1 9 ALUOp [0] $end
$var wire 1 2 funct [5] $end
$var wire 1 3 funct [4] $end
$var wire 1 4 funct [3] $end
$var wire 1 5 funct [2] $end
$var wire 1 6 funct [1] $end
$var wire 1 7 funct [0] $end
$var reg 3 A ALUControl [2:0] $end
$upscope $end
$upscope $end
$upscope $end
$enddefinitions $end
#0
$dumpvars
b0 !
b100000 "
0:
0;
0<
0=
1>
1?
b10 @
b10 A
0#
0$
0%
0&
1'
1(
0+
1*
0)
09
18
07
06
05
04
03
12
01
00
0/
0.
0-
0,
$end
#5
b100010 "
16
b110 A
1)
#10
b100100 "
06
15
b0 A
0*
0)
#15
b100101 "
17
b1 A
1+
#20
b101010 "
07
16
05
14
b111 A
1*
1)
#25
b100011 !
11
10
1,
0>
1=
1:
b0 @
0'
1&
1#
08
b10 A
0+
0)
#30
b101011 !
1.
0?
1;
0(
1$
#35
b100 !
01
00
1/
0.
0,
0=
1<
0;
b1 @
0&
1%
0$
19
b110 A
1)
